{
  "project_info": {
    "project_number": "479751681391",
    "firebase_url": "https://shopping-list-863e0.firebaseio.com",
    "project_id": "shopping-list-863e0",
    "storage_bucket": "shopping-list-863e0.appspot.com"
  },
  "client": [
    {
      "client_info": {
        "mobilesdk_app_id": "1:479751681391:android:520e641c810d2935",
        "android_client_info": {
          "package_name": "com.baddevelopergames.shoppinglist"
        }
      },
      "oauth_client": [
        {
          "client_id": "479751681391-mlpke5qiror9vkc4q310f5vunak3hu9p.apps.googleusercontent.com",
          "client_type": 1,
          "android_info": {
            "package_name": "com.baddevelopergames.shoppinglist",
            "certificate_hash": "3fb6bdadffef541746535bbaffe35c735d0ddfd7"
          }
        },
        {
          "client_id": "479751681391-7si59h4tesgihmvele1ok6h264739s60.apps.googleusercontent.com",
          "client_type": 3
        }
      ],
      "api_key": [
        {
          "current_key": "AIzaSyCT6wZMFq4unyBI-mGvFcKm_z947YBo9B4"
        }
      ],
      "services": {
        "analytics_service": {
          "status": 1
        },
        "appinvite_service": {
          "status": 2,
          "other_platform_oauth_client": [
            {
              "client_id": "479751681391-7si59h4tesgihmvele1ok6h264739s60.apps.googleusercontent.com",
              "client_type": 3
            }
          ]
        },
        "ads_service": {
          "status": 2
        }
      }
    }
  ],
  "configuration_version": "1"
}